{
	"info": {
		"_postman_id": "ae8cf35a-5a35-4e46-907b-7e6daa88cf3b",
		"name": "FEBS-Cloud-Teach",
		"schema": "https://schema.getpostman.com/json/collection/v2.1.0/collection.json"
	},
	"item": [
		{
			"name": "/auth/oauth/token",
			"request": {
				"method": "POST",
				"header": [
					{
						"key": "Authorization",
						"value": "Basic ZmViczoxMjM0NTY=",
						"type": "text"
					}
				],
				"url": {
					"raw": "localhost:8301/auth/oauth/token?grant_type=password&username=mrbird&password=1234qwer&key=777774396&code=5974",
					"host": [
						"localhost"
					],
					"port": "8301",
					"path": [
						"auth",
						"oauth",
						"token"
					],
					"query": [
						{
							"key": "grant_type",
							"value": "password"
						},
						{
							"key": "username",
							"value": "mrbird"
						},
						{
							"key": "password",
							"value": "1234qwer"
						},
						{
							"key": "key",
							"value": "777774396"
						},
						{
							"key": "code",
							"value": "5974"
						}
					]
				},
				"description": "密码模式获取token"
			},
			"response": []
		},
		{
			"name": "/auth/oauth/token",
			"request": {
				"method": "POST",
				"header": [
					{
						"key": "Authorization",
						"value": "Basic ZmViczoxMjM0NTY=",
						"type": "text"
					}
				],
				"url": {
					"raw": "localhost:8101/oauth/token?grant_type=refresh_token&refresh_token=f41f1b05-8192-4888-ad63-864439fbe923",
					"host": [
						"localhost"
					],
					"port": "8101",
					"path": [
						"oauth",
						"token"
					],
					"query": [
						{
							"key": "grant_type",
							"value": "refresh_token"
						},
						{
							"key": "refresh_token",
							"value": "f41f1b05-8192-4888-ad63-864439fbe923"
						}
					]
				},
				"description": "密码模式获取token"
			},
			"response": []
		},
		{
			"name": "/auth/signout",
			"request": {
				"method": "DELETE",
				"header": [
					{
						"key": "Authorization",
						"type": "text",
						"value": "bearer 62dab8dc-a168-4df7-9c1c-edf8b5438753"
					}
				],
				"url": {
					"raw": "localhost:8101/signout",
					"host": [
						"localhost"
					],
					"port": "8101",
					"path": [
						"signout"
					]
				},
				"description": "密码模式获取token"
			},
			"response": []
		},
		{
			"name": "/system/info",
			"request": {
				"method": "GET",
				"header": [
					{
						"key": "Authorization",
						"value": "bearer f50c9411-36a0-47c0-b234-a23e6044ba39",
						"type": "text"
					}
				],
				"url": {
					"raw": "localhost:8301/system/info",
					"host": [
						"localhost"
					],
					"port": "8301",
					"path": [
						"system",
						"info"
					]
				}
			},
			"response": []
		},
		{
			"name": "/system/user",
			"request": {
				"method": "GET",
				"header": [
					{
						"key": "Authorization",
						"type": "text",
						"value": "bearer f240e3ee-7b62-410f-9d88-e2fea3c60b8f"
					}
				],
				"url": {
					"raw": "localhost:8301/system/user?pageSize=10&pageNum=1&username=mrbird",
					"host": [
						"localhost"
					],
					"port": "8301",
					"path": [
						"system",
						"user"
					],
					"query": [
						{
							"key": "pageSize",
							"value": "10"
						},
						{
							"key": "pageNum",
							"value": "1"
						},
						{
							"key": "username",
							"value": "mrbird"
						}
					]
				}
			},
			"response": []
		},
		{
			"name": "/system/user",
			"request": {
				"method": "POST",
				"header": [
					{
						"key": "Authorization",
						"type": "text",
						"value": "bearer f240e3ee-7b62-410f-9d88-e2fea3c60b8f"
					}
				],
				"url": {
					"raw": "localhost:8301/system/user?username=Jane&roleId=1&sex=1&status=1",
					"host": [
						"localhost"
					],
					"port": "8301",
					"path": [
						"system",
						"user"
					],
					"query": [
						{
							"key": "username",
							"value": "Jane"
						},
						{
							"key": "roleId",
							"value": "1"
						},
						{
							"key": "sex",
							"value": "1"
						},
						{
							"key": "status",
							"value": "1"
						}
					]
				}
			},
			"response": []
		},
		{
			"name": "/system/user",
			"request": {
				"method": "PUT",
				"header": [
					{
						"key": "Authorization",
						"type": "text",
						"value": "bearer f240e3ee-7b62-410f-9d88-e2fea3c60b8f"
					}
				],
				"url": {
					"raw": "localhost:8301/system/user?username=Jane&userId=2&email=jane@qq.com&status=1&sex=1&roleId=1",
					"host": [
						"localhost"
					],
					"port": "8301",
					"path": [
						"system",
						"user"
					],
					"query": [
						{
							"key": "username",
							"value": "Jane"
						},
						{
							"key": "userId",
							"value": "2"
						},
						{
							"key": "email",
							"value": "jane@qq.com"
						},
						{
							"key": "status",
							"value": "1"
						},
						{
							"key": "sex",
							"value": "1"
						},
						{
							"key": "roleId",
							"value": "1"
						}
					]
				}
			},
			"response": []
		},
		{
			"name": "/system/user",
			"request": {
				"method": "DELETE",
				"header": [
					{
						"key": "Authorization",
						"type": "text",
						"value": "bearer f240e3ee-7b62-410f-9d88-e2fea3c60b8f"
					}
				],
				"url": {
					"raw": "localhost:8301/system/user/2",
					"host": [
						"localhost"
					],
					"port": "8301",
					"path": [
						"system",
						"user",
						"2"
					]
				}
			},
			"response": []
		},
		{
			"name": "/test/test1",
			"request": {
				"method": "GET",
				"header": [
					{
						"key": "Authorization",
						"type": "text",
						"value": "bearer f4d492ca-b824-4e17-a8a8-4cec0089809f"
					}
				],
				"url": {
					"raw": "localhost:8301/test/test1",
					"host": [
						"localhost"
					],
					"port": "8301",
					"path": [
						"test",
						"test1"
					]
				}
			},
			"response": []
		},
		{
			"name": "/test/hello",
			"request": {
				"method": "GET",
				"header": [
					{
						"key": "Authorization",
						"type": "text",
						"value": "bearer a5df6085-ad96-4ba5-89de-c665f04efbfc"
					}
				],
				"url": {
					"raw": "192.168.33.10:8301/test/hello?name=夏天",
					"host": [
						"192",
						"168",
						"33",
						"10"
					],
					"port": "8301",
					"path": [
						"test",
						"hello"
					],
					"query": [
						{
							"key": "name",
							"value": "夏天"
						}
					]
				}
			},
			"response": []
		},
		{
			"name": "/test/test2",
			"request": {
				"method": "GET",
				"header": [
					{
						"key": "Authorization",
						"type": "text",
						"value": "bearer f4d492ca-b824-4e17-a8a8-4cec0089809f"
					}
				],
				"url": {
					"raw": "localhost:8301/test/test2",
					"host": [
						"localhost"
					],
					"port": "8301",
					"path": [
						"test",
						"test2"
					]
				}
			},
			"response": []
		},
		{
			"name": "/test/user",
			"request": {
				"method": "GET",
				"header": [
					{
						"key": "Authorization",
						"type": "text",
						"value": "bearer c9abca1b-7486-48bc-a405-afd5b90c26c8"
					}
				],
				"url": {
					"raw": "localhost:8301/test/user",
					"host": [
						"localhost"
					],
					"port": "8301",
					"path": [
						"test",
						"user"
					]
				}
			},
			"response": []
		},
		{
			"name": "/auth/user",
			"request": {
				"method": "GET",
				"header": [
					{
						"key": "Authorization",
						"value": "bearer f4d492ca-b824-4e17-a8a8-4cec0089809f",
						"type": "text"
					}
				],
				"url": {
					"raw": "localhost:8301/auth/user",
					"host": [
						"localhost"
					],
					"port": "8301",
					"path": [
						"auth",
						"user"
					]
				}
			},
			"response": []
		},
		{
			"name": "/auth/oauth/test",
			"request": {
				"method": "GET",
				"header": [
					{
						"key": "Authorization",
						"type": "text",
						"value": "bearer f4d492ca-b824-4e17-a8a8-4cec0089809f"
					}
				],
				"url": {
					"raw": "localhost:8301/oauth/test",
					"host": [
						"localhost"
					],
					"port": "8301",
					"path": [
						"oauth",
						"test"
					]
				}
			},
			"response": []
		},
		{
			"name": "/system/menu/user",
			"request": {
				"method": "GET",
				"header": [
					{
						"key": "Authorization",
						"value": "bearer 78bcf572-c7ec-40e3-bf22-35ce17c618ee",
						"type": "text"
					}
				],
				"url": {
					"raw": "localhost:8301/system/menu/mrbird",
					"host": [
						"localhost"
					],
					"port": "8301",
					"path": [
						"system",
						"menu",
						"mrbird"
					]
				}
			},
			"response": []
		}
	]
}